<?xml version="1.0" encoding="utf-8"?>
<!-- Generator: Adobe Illustrator 23.0.2, SVG Export Plug-In . SVG Version: 6.00 Build 0)  -->
<svg version="1.1" id="Livello_1" xmlns="http://www.w3.org/2000/svg" xmlns:xlink="http://www.w3.org/1999/xlink" width="50" height="39"
	 viewBox="200 200 400 650">
<style type="text/css">
	.st0{fill:#E42E75;stroke:#E42E75;stroke-width:0.5311;stroke-miterlimit:10;}
	.st1{fill:#0079C2;}
	.st2{fill:url(#SVGID_1_);}
	.st3{fill:url(#SVGID_2_);}
	.st4{fill:url(#SVGID_3_);}
	.st5{fill:url(#SVGID_4_);}
	.st6{fill:url(#SVGID_5_);}
	.st7{fill:url(#SVGID_6_);}
	.st8{fill:url(#SVGID_7_);}
	.st9{fill:url(#SVGID_8_);}
	.st10{fill:url(#SVGID_9_);}
	.st11{fill:#008E83;}
	.st12{stroke:#000000;stroke-width:1.2369;stroke-miterlimit:10;}
	.st13{fill:#E30613;}
	.st14{fill:#E42E75;stroke:#E42E75;stroke-width:0.6185;stroke-miterlimit:10;}
	.st15{fill:url(#SVGID_10_);}
	.st16{fill:#2B2B2B;}
	.st17{fill:#F8D9CB;}
</style>
<g>
	<path class="st16" d="M371.17,498.67l5.51-24.43c2.6-11.72,4.67-20.63,6.21-26.72l28.02-109.61
		c12.1-47.34,23.42-85.48,33.99-114.41c-18.53,10.36-40.26,30.22-65.21,59.6c-35.15,41.5-71.13,94.37-107.96,158.61l-10.75-206.27
		l0,0c-16.87-0.15-27.29-0.23-31.23-0.23c-27.82,0-48.56,2.2-62.24,6.61c-20.52,6.54-36.82,16.91-48.9,31.11
		c-12.09,14.2-18.13,29.81-18.13,46.83c0,9.12,1.71,16.03,5.14,20.74s7.8,7.06,13.13,7.06c4.11,0,7.65-1.48,10.62-4.45
		c2.97-2.97,4.45-6.43,4.45-10.39c0-3.2-1.83-7.54-5.48-13.02c-3.96-5.94-5.94-11.19-5.94-15.76c0-12.94,7.91-25.23,23.75-36.88
		c15.83-11.65,35.85-17.47,60.06-17.47l10.96,0.46l-19.87,69.47c-12.03,42.96-24.43,84.39-37.22,124.31
		c-15.23,47.85-38.35,110.25-43.22,118.7c-4.88,8.46-10.58,14.67-17.13,18.63c-3.96,2.43-8.68,3.66-14.16,3.66
		c-5.18,0-10.96-1.6-17.36-4.8c-4.57-2.28-10.89-7.62-18.95-15.98c-5.94-6.25-11.5-9.36-16.67-9.36c-3.51,0-6.62,1.44-9.36,4.34
		c-2.74,2.89-4.11,6.24-4.11,10.05c0,8.22,4.64,15.76,13.91,22.61c9.27,6.85,21.51,10.28,36.71,10.28
		c22.95,0,44.16-8.91,63.61-26.74c19.3-17.67,34.35-45.55,45.14-83.64l47.1-153.18c1.75-6.16,3.48-12.09,5.2-17.87l14.7,199.86
		l19.93-34.98c25.35-45.72,48.26-83.52,68.72-113.39c25.5-37.03,44.36-62.48,56.58-76.36c-5.49,11.27-11.98,31.97-19.46,62.11
		l-17.63,69.88c-9.15,36.99-17.93,66.45-26.32,88.37c10.05-3.05,19.04-4.57,26.96-4.57c7.46,0,16,0.61,25.59,1.83
		c11.73,1.37,20.72,2.06,26.96,2.06c4.26,0,10.28-0.69,18.05-2.06l2.97-13.24c-8.83,1.83-17.14,2.74-24.9,2.74
		C393.33,502.78,382.74,501.41,371.17,498.67z"/>
	<circle class="st17" cx="528.26" cy="467.72" r="48.19"/>
</g>
</svg>
